Altstadt,Carlstadt,Stadtmitte,Pempelfort,Derendorf,Golzheim,Flingern Süd,Flingern Nord,Düsseltal,Friedrichstadt,Unterbilk/Hafen,Hamm,Volmerswerth,Bilk,Oberbilk,Flehe,Oberkassel,Heerdt,Lörick,Niederkassel,Stockum,Lohausen,Kaiserswerth,Wittlaer,Angermund,Kalkum,Lichtenbroich,Unterrath,Rath,Mörsenbroich,Gerresheim,Grafenberg,Ludenberg,Hubbelrath,Knittkuhl,Lierenfeld,Eller,Vennhausen,Unterbach,Wersten,Himmelgeist,Holthausen,Reisholz,Benrath,Urdenbach,Itter,Hassels,Garath,Hellerhof
 2573, 2387,13258,28852,18865,10834, 9993,21684,26942,19166,19801, 3456, 1743,33351,26244, 2281,17090, 9389, 7486, 4268, 5030, 3374, 7041, 3968, 6125, 1981, 5063,19903,17877,12884,27389, 6101, 5599, 3623,NA, 6846,33961,10406, 7607,24728, 1260,11004, 4167,15701,10519, 1392,16785,20431, 5251
 2579, 2398,13234,28579,18844,10720,10043,21830,26829,19192,19843, 3588, 1744,33604,26400, 2378,17465, 9412, 7465, 4267, 4999, 3333, 7188, 3991, 6103, 1999, 5105,19618,17858,12899,27287, 6071, 5576, 3694,NA, 6845,34048,10534, 7711,24876, 1264,10931, 4107,15723,10497, 1387,17165,20191, 5836
 2588, 2409,13084,28648,18734,10518,10027,21951,26777,18918,19960, 3632, 1742,33722,26530, 2520,17220, 9530, 7453, 4291, 4990, 3191, 7384, 3937, 6079, 1962, 5196,19396,17801,13411,27182, 5869, 5613, 3734,NA, 6810,34276,10360, 7694,24994, 1296,10886, 3980,15822,10338, 1388,17477,19964, 5994
 2485, 2356,12846,28480,18859,10291, 9954,21658,26375,18723,20089, 3562, 1752,33849,26169, 2496,17122, 9202, 7454, 4211, 4932, 3141, 7319, 3922, 6155, 1942, 5158,19402,17643,13414,26880, 5832, 5513, 3789,NA, 6729,34407,10424, 7525,24832, 1307,11075, 3819,15853,10256, 1384,17450,19599, 6460
 2403, 2342,13028,28109,18712,10157, 9672,21499,26123,18666,19856, 3626, 1767,34508,25961, 2444,16929, 9147, 7460, 4241, 4978, 3113, 7319, 3947, 6192, 1869, 5286,19221,17458,13782,27028, 5788, 5365, 3784,NA, 6562,34101,10393, 7428,25135, 1294,11028, 3808,15839,10220, 1353,17305,19447, 6689
 2357, 2341,12881,27974,18504,10131, 9501,21308,25924,18417,19779, 3684, 1892,34505,25976, 2429,16743, 9125, 7368, 4293, 4908, 3084, 7283, 4082, 6202, 1878, 5270,19499,17335,13784,27486, 5671, 5386, 3722,NA, 6538,33938,10361, 7417,25101, 1283,11078, 3792,15749,10154, 1396,17490,19267, 6778
 2367, 2297,12752,28124,18385,10311, 9502,21465,25805,18152,19541, 3698, 1960,34449,25697, 2425,16867, 9129, 7431, 4314, 4832, 2889, 7348, 4081, 6201, 1863, 5304,19509,17113,14047,27892, 5573, 5710, 3733,NA, 6443,33858,10259, 7409,25053, 1277,11074, 3751,15955,10106, 1567,17557,19246, 6911
 2335, 2292,12637,27979,18298,10282, 9423,21347,25471,17996,19295, 3732, 2058,34186,25363, 2476,16891, 9049, 6313, 5351, 4837, 2912, 7500, 4133, 6230, 1859, 5236,19748,17057,14215,28192, 5432, 5878, 3754,NA, 6372,33733,10212, 7386,25148, 1273,11011, 3823,16013,10112, 1582,17780,19293, 7009
 2297, 2327,12544,27830,18241,10248, 9346,20888,25219,17741,18927, 3700, 2137,34138,25183, 2454,16662, 9217, 6270, 5319, 4894, 2917, 7612, 4290, 6203, 1872, 5282,19782,16975,14073,28170, 5529, 5953, 3714,NA, 6156,33738,10373, 7426,24795, 1260,11123, 3747,15905,10362, 1577,17853,19165, 6966
 2306, 2296,12259,27413,18182,10446, 9128,20645,25213,17552,18468, 3710, 2121,34145,24825, 2458,16657, 9340, 6352, 5305, 4752, 2951, 7630, 4697, 6227, 1872, 5386,19754,17073,14033,28227, 5493, 6196, 3713,NA, 6021,33453,10306, 7446,25062, 1294,11243, 3708,16006,10556, 1567,17946,19007, 6956
 2654, 2423,12699,27947,18297,11064, 9310,21636,25444,17859,18556, 3737, 2087,34018,25970, 2543,17285, 9361, 6752, 5594, 4961, 3194, 7770, 5342, 6319, 1932, 5453,20056,18405,14359,28609, 5528, 6357, 3800,NA, 6205,34134,10441, 7540,25312, 1302,11432, 3753,16262,10697, 1581,18202,19218, 7084
 2627, 2438,12670,27769,18274,11258, 9270,21621,25390,17910,18433, 3788, 2094,34272,26016, 2590,17216, 9330, 6790, 5675, 4962, 3395, 7736, 5982, 6250, 1943, 5532,20104,18724,14256,28547, 5569, 6548, 3796,NA, 6157,34029,10407, 7477,25555, 1297,11323, 3740,16242,10712, 1569,18198,19212, 7257
 2650, 2432,12702,27627,18223,11170, 9386,21627,25365,17731,18381, 3744, 2059,34478,26304, 2574,17138, 9472, 6680, 5724, 5018, 3638, 7717, 6167, 6206, 1959, 5688,20155,18754,14414,28482, 5512, 6655, 3789,NA, 6178,34084,10299, 7364,25798, 1295,11435, 3712,16097,10774, 1553,18047,19230, 7026
 2610, 2406,12721,27641,18243,11175, 9431,21460,25258,17758,18365, 3713, 2054,34825,26681, 2540,17050, 9372, 6789, 5698, 5131, 3766, 7746, 6365, 6224, 1959, 5836,20242,19009,14205,28585, 5512, 6656, 3763,NA, 6189,33998,10293, 7384,26142, 1253,11454, 3712,16103,10699, 1587,18116,18948, 6939
 2533, 2432,12532,27871,18398,11156, 9454,21512,25344,17676,18320, 3706, 2052,35518,27079, 2532,16999, 9344, 6862, 5565, 5125, 3804, 7838, 6702, 6250, 1972, 5771,20497,18930,14214,28649, 5527, 6752, 3779,NA, 6192,34049,10222, 7405,26391, 1295,11627, 3657,15841,10602, 1714,18017,18906, 6853
 2545, 2387,12849,27940,18459,11184, 9635,21504,25490,17965,18287, 3687, 2107,35935,27496, 2545,17159, 9648, 6930, 5650, 5140, 3862, 7871, 6927, 6166, 1952, 5687,20474,19038,14174,28476, 5605, 6726, 3703,NA, 9914,30221,10166, 7301,26424, 1281,11754, 3710,15809,10590, 1717,17885,18831, 6790
 2523, 2378,12954,28023,18644,11401, 9750,21446,25583,18208,18286, 3635, 2158,36568,27983, 2539,17167, 9736, 7047, 5723, 5114, 4072, 7944, 7098, 6139, 1952, 5683,20762,19137,14185,28524, 5576, 6878, 3699,NA,10163,29988,10102, 7343,26809, 1277,11919, 3663,15887,10536, 1712,17820,18647, 6726
 2445, 2401,13314,28232,18998,11447, 9727,21631,25939,18379,18303, 3665, 2179,37107,28405, 2520,17336, 9824, 7390, 5757, 5201, 4042, 8018, 7314, 6150, 1951, 5851,20991,18959,14188,28769, 5630, 7016, 3685,NA,10241,30004,10077, 7340,26882, 1300,12041, 3661,16002,10672, 1743,17763,18560, 6610
 2378, 2356,13115,28465,19095,11503, 9732,21637,25898,18175,18208, 3720, 2168,37275,28983, 2546,17673, 9742, 7386, 5766, 5211, 3999, 7983, 7530, 6185, 1955, 5778,20860,18977,14104,28690, 5546, 6987, 3684,NA,10143,29834, 9964, 7286,26653, 1322,12155, 3602,16111,10626, 1855,17679,18408, 6526
 2291, 2355,13354,28777,19219,11689, 9845,21872,26042,18173,18223, 3875, 2155,37409,29147, 2530,17609, 9757, 7379, 5767, 5218, 3980, 7967, 7519, 6180, 1963, 5769,20803,18828,14190,28631, 5586, 7030, 3655,NA,10184,30044, 9903, 7260,26749, 1354,12178, 3595,15979,10585, 1884,17591,18319, 6375
 2198, 2314,13544,29139,19525,11764, 9878,22172,26259,18370,18330, 3909, 2172,37602,29284, 2529,17870, 9728, 7462, 5806, 5168, 3896, 8024, 7729, 6214, 1973, 5717,20896,19131,14349,28639, 5607, 7083, 3644,NA,10128,30345, 9901, 7271,26671, 1382,12230, 3612,15952,10606, 1958,17484,18307, 6296
 2194, 2230,13616,29254,19528,11782, 9850,22086,26647,18523,18473, 3972, 2184,37907,29477, 2519,17744, 9839, 7565, 5845, 5253, 3944, 7984, 7761, 6302, 1988, 5731,21071,19295,14446,28698, 5712, 7357, 3679,NA,10294,30616,10090, 7314,26605, 1613,12263, 3638,16045,10630, 2037,17293,18380, 6236
 2232, 2290,13900,29931,19740,11956,10025,22125,26848,18656,18616, 4023, 2266,38523,29715, 2571,17945, 9876, 7508, 5920, 5265, 3979, 7871, 7786, 6273, 1987, 5720,21174,19503,14540,28889, 5686, 7269, 3716,NA,10315,30934,10320, 7295,26665, 1835,12326, 3704,16099,10625, 2091,17746,18364, 6138
 2253, 2323,13953,30345,19927,12086,10130,22261,26983,18927,18846, 4066, 2273,39165,30049, 2578,17975, 9968, 7320, 5884, 5317, 4005, 7848, 7832, 6258, 1919, 5587,21234,19577,14803,28969, 5723, 7526, 3646,NA,10468,31147,10533, 7346,26844, 1965,12510, 3711,16054,10561, 2174,18036,18470, 6071
 2221, 2315,14388,30814,20005,12279,10227,22874,27434,19471,18846, 4188, 2306,39708,30288, 2535,18238,10102, 7338, 5904, 5409, 4046, 7905, 7885, 6240, 1926, 5500,21280,19923,15423,29233, 5749, 7705, 1571, 2055,10525,31307,10509, 7465,26924, 2019,12557, 3738,16118,10609, 2304,17536,18729, 5980
 2264, 2491,14680,31449,20232,12913,10291,23349,27861,19630,19033, 4305, 2353,39899,30556, 2547,18495,10315, 7508, 5900, 5671, 4193, 8018, 7983, 6494, 1959, 5539,21625,20206,16351,29544, 5749, 7962, 1535, 2048,10545,31407,10436, 7552,27116, 2032,12540, 3836,16644,10657, 2345,17398,19068, 5913
 2244, 2588,15008,31897,20401,12702,10348,23851,28141,19984,19182, 4399, 2350,40038,30446, 2687,18840,11028, 7608, 5970, 5607, 4188, 8112, 8009, 6580, 1983, 6031,21746,20231,17407,29585, 5832, 8079, 1722, 2078,10562,31516,10514, 7641,27232, 2034,13041, 3737,16735,10682, 2357,17668,19042, 6041
 2358, 2279,14840,32626,20651,12520,10319,24617,28149,19616,19408, 4444, 2345,40552,30391, 2725,18949,11398, 7625, 6047, 5589, 4129, 8038, 8106, 6621, 1973, 6204,21711,20205,18002,29761, 5898, 8240, 1645, 2091,10809,31732,10535, 7636,27366, 2058,12899, 3777,16833,10685, 2376,17517,19143, 5969
 2404, 2285,14954,33064,20610,12597,10344,25111,28177,19883,19479, 4507, 2391,40651,30362, 2726,18928,11685, 7585, 6084, 5592, 4132, 8066, 8175, 6626, 1993, 6127,22012,20330,18126,29589, 5825, 8234, 1612, 2097,11034,31701,10598, 7736,27311, 2065,12844, 3721,16751,10633, 2395,18161,19109, 5882
 2453, 2281,14958,33282,20760,12861,10413,25464,28077,19712,19484, 4496, 2355,41128,30961, 2730,19017,12352, 7614, 6105, 5596, 4121, 8017, 8261, 6745, 1955, 6218,21995,20412,18123,29874, 5844, 8081, 1605, 2062,11249,31547,10722, 7829,27325, 2063,12890, 3773,16583,10656, 2400,18586,19046, 5842
 2429, 2259,14654,33137,20584,12873,10284,25867,28032,19607,19445, 4518, 2336,41150,31179, 2759,19052,12395, 7513, 6079, 5596, 4170, 7923, 8117, 6746, 1982, 6104,22002,20483,18021,29641, 5845, 7907, 1632, 2047,11108,31153,10705, 7802,27151, 2067,12775, 3753,17178,10559, 2411,18465,19048, 5737
